*** Darwin 9x6 ***
Turn = 0.
  012345
0 tfhhrf
1 thhrtr
2 rhrtht
3 frthtt
4 hhhhht
5 hhffrt
6 rhfrhr
7 ttffth
8 ttthfh

*** Darwin 16x23 ***
Turn = 0.
  01234567890123456789012
0 ........rrt..fh.th..h.t
1 h.f...r.h..t.hf...r..hr
2 ...h..fft.f....r.r.ft..
3 ..ff.r..f..tfr....h.hr.
4 htth...t....th.t.r..r..
5 htff....h.t..ff..ht....
6 .h..h....ht.ftr...t.h..
7 ..rf....th.ftttth..h.ht
8 .f.ff.rft.h..f.........
9 ..rt.f...rhtt......hh.f
0 rrrh.h...f..fth..hfhrht
1 ff.h.r.r.h...tf..tthrf.
2 ttht.......r.thhtfr...f
3 rt....ftt.f..f.htf.rff.
4 .....r.....rh..r.h.ff..
5 .h..f....th...hfft.r...

*** Darwin 8x8 ***
Turn = 0.
  01234567
0 f.......
1 ........
2 ........
3 ...hh...
4 ...hh...
5 ........
6 ........
7 .......f

Turn = 1.
  01234567
0 f.......
1 ........
2 ...h....
3 .....h..
4 ..h.....
5 ....h...
6 ........
7 .......f

Turn = 2.
  01234567
0 f.......
1 ...h....
2 ........
3 ......h.
4 .h......
5 ........
6 ....h...
7 .......f

Turn = 3.
  01234567
0 f..h....
1 ........
2 ........
3 .......h
4 h.......
5 ........
6 ........
7 ....h..f

Turn = 4.
  01234567
0 f..h....
1 ........
2 ........
3 .......h
4 h.......
5 ........
6 ........
7 ....h..f

Turn = 5.
  01234567
0 f..h....
1 ........
2 ........
3 .......h
4 h.......
5 ........
6 ........
7 ....h..f

*** Darwin 7x9 ***
Turn = 0.
  012345678
0 t........
1 .........
2 .........
3 ..h......
4 .........
5 ....r....
6 ........t

Turn = 1.
  012345678
0 t........
1 .........
2 .........
3 ...h.....
4 ....r....
5 .........
6 ........t

Turn = 2.
  012345678
0 t........
1 .........
2 .........
3 ....r....
4 ....r....
5 .........
6 ........t

Turn = 3.
  012345678
0 t........
1 .........
2 .........
3 ....rr...
4 .........
5 .........
6 ........t

Turn = 4.
  012345678
0 t........
1 .........
2 ....r....
3 ......r..
4 .........
5 .........
6 ........t

Turn = 5.
  012345678
0 t........
1 ....r....
2 .........
3 .......r.
4 .........
5 .........
6 ........t

*** Darwin 7x9 ***
Turn = 0.
  012345678
0 t........
1 .........
2 .........
3 ..h......
4 .........
5 ....r....
6 ........t

Turn = 1.
  012345678
0 t........
1 .........
2 .........
3 ...h.....
4 ....r....
5 .........
6 ........t

Turn = 2.
  012345678
0 t........
1 .........
2 .........
3 ....r....
4 ....r....
5 .........
6 ........t

Turn = 3.
  012345678
0 t........
1 .........
2 .........
3 ....rr...
4 .........
5 .........
6 ........t

Turn = 4.
  012345678
0 t........
1 .........
2 ....r....
3 ......r..
4 .........
5 .........
6 ........t

Turn = 5.
  012345678
0 t........
1 ....r....
2 .........
3 .......r.
4 .........
5 .........
6 ........t

*** Darwin 9x6 ***
Turn = 0.
  012345
0 .f.hrf
1 thhrtr
2 rhrth.
3 frthtt
4 hhhhht
5 htffrt
6 r.frhr
7 ttffth
8 ttthfh

Turn = 3.
  012345
0 .ttrrr
1 ttr.rr
2 rrrrt.
3 rrrhtt
4 hhrrrt
5 ttfrtt
6 t.rttr
7 tttfth
8 tttttt

Turn = 6.
  012345
0 .trrr.
1 ttrrr.
2 tttrrr
3 rttrrr
4 rrrrrr
5 rrrttr
6 t.tttt
7 tttttt
8 tttttt

*** Darwin 9x6 ***
Turn = 0.
  012345
0 .f.hrf
1 .hrrtr
2 r..th.
3 frt.tt
4 h.hhht
5 h..frt
6 r.frh.
7 t.ffth
8 ttthfh

Turn = 1.
  012345
0 .f.hrf
1 .h.tr.
2 r.rttr
3 rrthtt
4 h.t.rt
5 h..rrt
6 r.frth
7 r.fft.
8 ttttfh

Turn = 2.
  012345
0 .f.hrf
1 rh.tr.
2 r.rttr
3 r.rhtt
4 hr.rrt
5 h..rtt
6 r.f.th
7 .rfft.
8 ttttfh

Turn = 3.
  012345
0 rf.rrf
1 rh.tt.
2 ..tttr
3 r..rtr
4 rrrrrr
5 h..rtt
6 r.f.th
7 .rttt.
8 tttttt

Turn = 4.
  012345
0 rf.rrf
1 rh.rr.
2 r.trtt
3 ...rtt
4 rr.rrr
5 r.rrrt
6 ..f.tt
7 rttttr
8 tttrr.

Turn = 5.
  012345
0 rf.rrf
1 rh.r.r
2 r.trtt
3 ...rtt
4 r..rrt
5 .rrrrt
6 r..rtr
7 rttttr
8 rtttt.

Turn = 6.
  012345
0 rfrr.f
1 rh.rrr
2 r.tr.t
3 ..rrtt
4 r..r.t
5 ...rrt
6 rttrrr
7 rttttr
8 ttttt.

Turn = 7.
  012345
0 rrrrrf
1 rrr..r
2 r.trrr
3 ..t.tt
4 ..r..t
5 r.rrrt
6 rrt.rr
7 trtttt
8 ttttt.

*** Darwin 10x10 ***
Turn = 0.
  0123456789
0 .f.hrf....
1 .hrrtr....
2 r..th.....
3 frt.tt....
4 h.hhht....
5 h..frth...
6 r.frh.....
7 t.ffth....
8 ttthfh....
9 ..........

Turn = 1.
  0123456789
0 .f.hrf....
1 .h.tr.....
2 r.rttr....
3 rrthtt....
4 h.t.rt....
5 h..rrth...
6 r.frth....
7 r.fft.....
8 ttttf.h...
9 ..........

Turn = 2.
  0123456789
0 .f.hrf....
1 rh.tr.....
2 r.rttr....
3 r.rht.r...
4 hr.rrt....
5 h..rtth...
6 r.f.th....
7 .rfft.....
8 ttttf..h..
9 ..........

Turn = 3.
  0123456789
0 rf.rrf....
1 rh.tt.....
2 ..ttt.....
3 r..rtr.r..
4 rrrrrr....
5 h..ttth...
6 r.f.th....
7 .rttt.....
8 ttttt...h.
9 ..........

Turn = 4.
  0123456789
0 rf.rrf....
1 rh.rr.....
2 ..trt.....
3 r..rtr..r.
4 rr.rrr....
5 r.tttth...
6 r.frtt....
7 .tt.t.....
8 ttttt....h
9 ..........

Turn = 5.
  0123456789
0 rf.rrf....
1 rh.rt.....
2 ..trt.....
3 .r.rrr...r
4 r..rr.r...
5 rrttrth...
6 r.ttrr....
7 .tt.t.....
8 ttttt....h
9 ..........

Turn = 6.
  0123456789
0 rfrr.f....
1 rh.rt.....
2 ..ttt.....
3 ..rrrr...r
4 r..rr..r..
5 r.ttrtt...
6 rtttr.....
7 .tt.tt....
8 ttttt....h
9 ..........

Turn = 7.
  0123456789
0 rrrr.f....
1 rhr.t.....
2 ..trrr...r
3 r.rrr.....
4 r.r..r..r.
5 ..ttrtt...
6 rrttr.....
7 .tt.tt....
8 ttttt....h
9 ..........

*** Darwin 16x23 ***
Turn = 0.
  01234567890123456789012
0 ........rrt..fh.th..h.t
1 h.f...r.h..t.hf...r..hr
2 ...h..fft.f....r.r.ft..
3 ..ff.r..f..tfr....h.hr.
4 htth...t....th.t.r..r..
5 htff..f.h.t..ff..ht....
6 .h..h....ht..tr...t.h..
7 ..rf....th.ftttth..h.ht
8 .f.ff.rft.h..f.........
9 ..rt.f...rhtt......hh.f
0 rrrh.h...f..f.h..hfhrht
1 ff.h.r.r.h..ftf..tthrf.
2 ttht.......r.thhtfr...f
3 rt....ftt.f..f.htf.rff.
4 .....r.....rh..r.h.ff..
5 .h..f....th...hfft.r...

Turn = 2.
  01234567890123456789012
0 h..h....r.t..fh.tt..h.t
1 ..f....rtr.t.hf.r....h.
2 ......fft.f..r....r.t.r
3 ..ff....f..ttrr....rrr.
4 ttth...t....tr.t..h..r.
5 .ttt.rtt..t...rr.rt....
6 .t.t.....tt..t..r.t...h
7 rr.f....t.httttth...h.t
8 .f.ff..tt.h..f.........
9 ..tt.r...rr.r.r..h.h.ht
0 r.rr.rr..f..fh.h..trrht
1 trrr.r......ttfh.ttr.f.
2 rth.r..r.r.r.t.httrr.rf
3 tt....rrttf..f..tt.rr..
4 .......r..h...hhr.rff..
5 .h..f....t....hfft..r..

Turn = 4.
  01234567890123456789012
0 h..h....r.t..fh.tt..h.t
1 ..f....rt..t.hrr......h
2 ......frt.fr..r....rr..
3 ..tt....fr.ttt......r.r
4 tttt...t....t.rt..t.r.r
5 .ttt..tt..t..r..r.trh..
6 .t.t.....tt..r.r.tt...h
7 .t.t.r..trtttrttt.....t
8 .t.ffr.tt.r...r.....r..
9 r.ttr.....r...rrr..h..t
0 r.tt.....f.rthth..trhrt
1 rtr..r......ttt..ttr.r.
2 tt...rrrt....t.ttttrrrf
3 ttrrrr..ttt..t..tt.....
4 .........rh...hht.rrr..
5 .h..f....t....hftt.r..r

*** Darwin 16x24 ***
Turn = 0.
  012345678901234567890123
0 .........rt..fh.th..h.t.
1 h.f...r.h..t.hf...r..hr.
2 ...h..fft.f....r.r.ft...
3 ..ff.r..f..tfr....h.hr..
4 htth...t....th.t.r......
5 htff..f.h.t..ff..ht.....
6 .h..h....ht..tr...t.h...
7 ..rf....th.ftttth..h.ht.
8 .f.ff.rft.h..f..........
9 ..rt.f...rhtt......hh.f.
0 .rrh.h...f..f.h..hfhrht.
1 fr.h.r.r.h..ftf..tthrf..
2 t.ht.......r.thhtfr...f.
3 rtt...ftt.fh.f.htf.rff..
4 .....r.....h...r.h.f....
5 .h..f....t....hfft.r....

Turn = 3.
  012345678901234567890123
0 ...h....hr..rfh.tt..h.t.
1 .hf......r.t.hfr......tt
2 ......ftt.f.r.r....rt...
3 ..ft....f..ttt......t...
4 tttt...t....t..t..hr....
5 .ttt..tt..t..rrr..t.....
6 .t.t.r...tt..t..rtt.h..h
7 .t.t....t.htttttt...h.t.
8 rf.ff..tt.r..t..........
9 ..ttrr...rr..r.rh..hrht.
0 t..t.....r..fhhh..trh.t.
1 rrtr..r.....ttf..tt..r..
2 rttr...rr....t.htttrrrf.
3 ttt..rr.ttf.tt..tt..rr..
4 ........tt.....ht.r.....
5 .h..f....t....hfft.r.r..

*** Darwin 16x24 ***
Turn = 0.
  012345678901234567890123
0 .........rt..fh.th..h.t.
1 h.f...r.h..t.hf...r..hr.
2 ...h..fft.f....r.r.ft...
3 ..ff.r..f..tfr....h.hr..
4 htth...t....th.t.r......
5 htff..f.h.t..ff..ht.....
6 .h..h....ht..tr...t.h...
7 ..rf....th.ftttth..h.ht.
8 .f.ff.rft.h..f..........
9 ..rt.f...rhtt......hh.f.
0 .rrh.h...f..f.h..hfhrht.
1 fr.h.r.r.h..ftf..tthrf..
2 t.ht.......r.thhtfr...f.
3 rtt...ftt.fh.f.htf.rff..
4 .....r.....h...r.h.f....
5 .h..f....t....hfft.r....

Turn = 3.
  012345678901234567890123
0 ...h....hr..rfh.tt..h.t.
1 .hf......r.t.hfr......tt
2 ......ftt.f.r.r....rt...
3 ..ft....f..ttt......t...
4 tttt...t....t..t..hr....
5 .ttt..tt..t..rrr..t.....
6 .t.t.r...tt..t..rtt.h..h
7 .t.t....t.htttttt...h.t.
8 rf.ff..tt.r..t..........
9 ..ttrr...rr..r.rh..hrht.
0 t..t.....r..fhhh..trh.t.
1 rrtr..r.....ttf..tt..r..
2 rttr...rr....t.htttrrrf.
3 ttt..rr.ttf.tt..tt..rr..
4 ........tt.....ht.r.....
5 .h..f....t....hfft.r.r..
